[
    {
        "orderID" : "0001",
        "productID" : {
            "item1" : "FENDST001"
        },
        "quantity" : "01",
        "price" : {
            "item1_price" : "20000"
        },
        "subTotal" : "20000"
    }
]